-----BEGIN PGP MESSAGE-----

hQGMAwpLoiSRaNd5AQwAnoTHj0yfu/ucS+6PLqfvKvarcUzjb+oYq+wqBSKwug9Q
ej8mim+yzNmJlZ7GSIISxc5hLU7hlaKvI/rjQ3MkxyA4BLXa+NAg4wdQNXnMZvYM
BqtLLY26eZTrEECgu+1ksmTN7XPS/8h0rtuLGsmEZ9bMk1VA9ktMa3/LBhLrPnwK
4Ljxyl1RKaFKEBjhRTHX6KA0sXJZlDgh266feSfXo76WOUfmp5lCuliD0aWA3rDL
bVOJxL0XWRMdnZNWrjIsBRGBOk8QoMo5h59S+YGKTZQ5hwWfDoegeiInWKtfQ39i
AgKOlbdOL7p35BZmmmTswIX5eHmcLiR5YV8k/ZRGo7QpmhUVh1lIR/7p5aKM0tK2
z+e80Bem+lpHgmObR+IaWBBh46MaOT3BQo+4wEnIvMneySupN60t95GJpUXJf8VQ
QL7YmXVKdkH9LmH8LUZkxfaFpTKaDpTG1wkq3MukPhRqP9RiCiKAucalkDxC9QUQ
uKmHRliJ5JVvAmQHRQ0w0kIBjeAmbLB/1hp26pcT73AVja33Mth5cBeGRVcex9KH
NNifUCA8JEMliRnNf3yQL3HizybkTSGUkeDF83LnjWwVMvE=
=mqlq
-----END PGP MESSAGE-----
